[
  [
    285,
    351
  ],
  [
    305,
    411
  ],
  [
    225,
    430
  ],
  [
    205,
    252
  ],
  [
    205,
    113
  ],
  [
    386,
    430
  ],
  [
    406,
    252
  ],
  [
    346,
    113
  ],
  [
    245,
    747
  ],
  [
    185,
    965
  ],
  [
    125,
    1164
  ],
  [
    366,
    747
  ],
  [
    406,
    965
  ],
  [
    486,
    1164
  ],
  [
    305,
    747
  ]
]